%YAML 1.1
%TAG !u! tag:unity3d.com,2011:
--- !u!114 &11400000
MonoBehaviour:
  m_ObjectHideFlags: 0
  m_CorrespondingSourceObject: {fileID: 0}
  m_PrefabInstance: {fileID: 0}
  m_PrefabAsset: {fileID: 0}
  m_GameObject: {fileID: 0}
  m_Enabled: 1
  m_EditorHideFlags: 0
  m_Script: {fileID: 11500000, guid: 6c5918350b2e1a044a8d12708f8cb691, type: 3}
  m_Name: DogHeroAbility
  m_EditorClassIdentifier: 
  Type: 0
  Image: {fileID: 21300000, guid: bea83b57bfb402240b6c609cac926dfd, type: 3}
  Title: Dog Knight
  Description: 
  CoolDown: 10
