%YAML 1.1
%TAG !u! tag:unity3d.com,2011:
--- !u!1 &7965586179907473837
GameObject:
  m_ObjectHideFlags: 0
  m_CorrespondingSourceObject: {fileID: 0}
  m_PrefabInstance: {fileID: 0}
  m_PrefabAsset: {fileID: 0}
  serializedVersion: 6
  m_Component:
  - component: {fileID: 7965586179907473838}
  - component: {fileID: 7965586179907473839}
  - component: {fileID: 7965586179907473836}
  m_Layer: 0
  m_Name: DeckPanel
  m_TagString: Untagged
  m_Icon: {fileID: 0}
  m_NavMeshLayer: 0
  m_StaticEditorFlags: 0
  m_IsActive: 1
--- !u!4 &7965586179907473838
Transform:
  m_ObjectHideFlags: 0
  m_CorrespondingSourceObject: {fileID: 0}
  m_PrefabInstance: {fileID: 0}
  m_PrefabAsset: {fileID: 0}
  m_GameObject: {fileID: 7965586179907473837}
  m_LocalRotation: {x: 0, y: 0, z: 0, w: 1}
  m_LocalPosition: {x: 0.0028071098, y: 0.3734274, z: 0.92112136}
  m_LocalScale: {x: 1, y: 1, z: 1}
  m_ConstrainProportionsScale: 0
  m_Children: []
  m_Father: {fileID: 0}
  m_RootOrder: 0
  m_LocalEulerAnglesHint: {x: 0, y: 0, z: 0}
--- !u!114 &7965586179907473839
MonoBehaviour:
  m_ObjectHideFlags: 0
  m_CorrespondingSourceObject: {fileID: 0}
  m_PrefabInstance: {fileID: 0}
  m_PrefabAsset: {fileID: 0}
  m_GameObject: {fileID: 7965586179907473837}
  m_Enabled: 1
  m_EditorHideFlags: 0
  m_Script: {fileID: 19102, guid: 0000000000000000e000000000000000, type: 0}
  m_Name: 
  m_EditorClassIdentifier: 
  m_PanelSettings: {fileID: 11400000, guid: f5c83886c2c56034db6ac93ecbc64d10, type: 2}
  m_ParentUI: {fileID: 0}
  sourceAsset: {fileID: 9197481963319205126, guid: 984d3ffb187a44d4eae4e2bba3f02338, type: 3}
  m_SortingOrder: 0
--- !u!114 &7965586179907473836
MonoBehaviour:
  m_ObjectHideFlags: 0
  m_CorrespondingSourceObject: {fileID: 0}
  m_PrefabInstance: {fileID: 0}
  m_PrefabAsset: {fileID: 0}
  m_GameObject: {fileID: 7965586179907473837}
  m_Enabled: 1
  m_EditorHideFlags: 0
  m_Script: {fileID: 11500000, guid: d89a3cf572493364f851cfdeecdefb48, type: 3}
  m_Name: 
  m_EditorClassIdentifier: 
  Cards:
  - {fileID: 11400000, guid: 72d093ae38d6c9149a831b973511a39b, type: 2}
  - {fileID: 11400000, guid: 8f0c79921af008c4aab18a2c6609890a, type: 2}
  - {fileID: 11400000, guid: 0fd3fa7e131917047beadb2a07082b23, type: 2}
  - {fileID: 11400000, guid: 2cb16d2586bc4594b8a176e512c0fcda, type: 2}
  - {fileID: 11400000, guid: c91e590cb0a70dc42bb17b920ee8394a, type: 2}
  - {fileID: 11400000, guid: 256fcd818b4d83e48b722e72ac0f8e05, type: 2}
  - {fileID: 11400000, guid: 3c24a00c8c3ee2b4c90e862e6b062584, type: 2}
  - {fileID: 11400000, guid: db5b0cd3bbc90a84faa1241e7da01a7f, type: 2}
  - {fileID: 11400000, guid: 9e67d00321d1f8043802813ad441c9d5, type: 2}
  - {fileID: 11400000, guid: 427b25e4ed59d0d4c8d0342677f84f67, type: 2}
  - {fileID: 11400000, guid: 73fba870a9ab0f748b7ec38885657cb5, type: 2}
  - {fileID: 11400000, guid: 16a5851c3b501df43ad3ab8f903ee109, type: 2}
  - {fileID: 11400000, guid: 94f52f4e6159cc14385e838701f6b39a, type: 2}
  - {fileID: 11400000, guid: b1351c68cce39d14081492478c8f6dc2, type: 2}
  - {fileID: 11400000, guid: 4018997480fc5724990afdb13afc9ed9, type: 2}
  CardPanel: {fileID: 9197481963319205126, guid: 9078778efe317624b9d4ef007d3b875b, type: 3}
